UserScreenName,UserName,Timestamp,Text,Embedded_text,Emojis,Comments,Likes,Retweets,Image link,Tweet URL
"Iain Brown, PhD",@IainLJBrown,2022-01-01T23:49:49.000Z,"Iain Brown, PhD
@IainLJBrown
·
2 de gen.","Artificial intelligence — saviour or monster? - BusinessLine

Read more here: https://ift.tt/3pIbYS8

#ArtificialIntelligence #AI #DataScience #100DaysOfCode #Python #MachineLearning #BigData #DeepLearning #NLP #Robots #IoT
thehindubusinessline.com
Artificial intelligence — saviour or monster?
AI spares human efforts for more creative pursuits. On the flip side, it can overwhelm humankind if not kept in check
40
13",,,40,13,['https://pbs.twimg.com/card_img/1484574156515680261/z5ZK5bEQ?format=jpg&name=small'],https://twitter.com/IainLJBrown/status/1477426868949340161
Grant Hadlich,@GrantHadlich,2022-01-01T23:37:47.000Z,"Grant Hadlich
@GrantHadlich
·
2 de gen.","Each week I pull ~51000 tweets on US State mentions and do sentiment analysis. Most positive state was #Montana according to an ensemble model! In the replies are the individual models.
GitHub: https://github.com/ghadlich/StateSentiment…
#NLP #Python #ML
1
1
2",,1,1,2,['https://pbs.twimg.com/media/FIDdJvkVIAM3zr8?format=jpg&name=small'],https://twitter.com/GrantHadlich/status/1477423839080370179
Lou Laggan,@LouLagganCoach,2022-01-01T23:15:38.000Z,"Lou Laggan
@LouLagganCoach
·
2 de gen.","If it's worth doing, do it with all your heart and soul. #Bearwisdom #NELifeCoach #Change #Selfbelief #NLP
1
1",,,1,1,['https://pbs.twimg.com/media/FIDYFV6XIAUX24W?format=jpg&name=small'],https://twitter.com/LouLagganCoach/status/1477418268617023495
Radiology: Artificial Intelligence,@Radiology_AI,2022-01-01T23:05:04.000Z,"Radiology: Artificial Intelligence
@Radiology_AI
·
2 de gen.","Using #NLP of cardiovascular radiology reports to label diagnosis https://doi.org/10.1148/ryai.210085… 
@DrSameerZaman
 @CamilleGonzague
 @DrJHoward
 #SciBERT #HeartDisease #AI
1
6
5",,1,6,5,['https://pbs.twimg.com/media/FIDVqkTUcAI6pKj?format=png&name=small'],https://twitter.com/Radiology_AI/status/1477415606299213824
Life&Mind（ライフ&マインド）編集部,@life_mind777,2022-01-01T22:00:19.000Z,"Life&Mind（ライフ&マインド）編集部
@life_mind777
·
1 de gen.","Life&Mind過去記事と無料【講演会】のお知らせ。
「普段のコミュニケーションがとれていれば #1on1 ミーティングは不要では？」というアナタにも、より高い成果を出すためにオススメです。
1on1とは？⇒ https://life-and-mind.com/1on1-29267

講演会はこちら⇒ https://nlpjapan.co.jp/coaching1on1-nlp-webiner/…

#NLP #心理学 #コーチング
nlpjapan.co.jp
『コーチング１on１で成果を最大化する心理学NLP』出版記念講演
1
5",,,1,5,['https://pbs.twimg.com/card_img/1486149664596725762/bu8FbbVg?format=png&name=small'],https://twitter.com/life_mind777/status/1477399313852645376
fly51fly,@fly51fly,2022-01-01T21:43:44.000Z,"fly51fly
@fly51fly
·
1 de gen.","[CL] EntQA: Entity Linking as Question Answering
W Zhang, W Hua, K Stratos [Rutgers University] (2021) 
https://arxiv.org/abs/2110.02369
#MachineLearning #ML #AI #NLP #NLProc
1
2
3",,1,2,3,"['https://pbs.twimg.com/media/FIDC9paXoAEZjhA?format=jpg&name=small', 'https://pbs.twimg.com/media/FIDDBpBXEAkCWJE?format=jpg&name=small']",https://twitter.com/fly51fly/status/1477395137043083266
Katherine T Owen,@spiritual_jny,2022-01-01T21:06:34.000Z,"Katherine T Owen
@spiritual_jny
·
1 de gen.","What is Neurolinguistic Programming anyway? https://a-spiritual-journey-of-healing.com/nlp-definition.html… #nlp #success #goals #motivational
a-spiritual-journey-of-healing.com
NLP Definition - Neurolinguistic Programming, An Explanation
NLP definition. What is Neurolinguistic programming? How do I stop my bad thoughts? How do I become more confident? Which NLP exercise can I use to get rid of this bad memory?
1",,,1,,['https://pbs.twimg.com/card_img/1485379836231176194/zB03WLvy?format=jpg&name=240x240'],https://twitter.com/spiritual_jny/status/1477385786702057475
datayoshi_jobs,@Datayoshi_jobs,2022-01-01T21:01:24.000Z,"datayoshi_jobs
@Datayoshi_jobs
·
1 de gen.","General Motors has a new Data Scientist open position

#hiring #datasciencejobs #datayoshi #Spark #SQL #NLP

 Apply here 
datayoshi.com
Entry Level - PHD Data Scientist - General Motors
Job Description About GM There's never been a more exciting time to work for General Motors. To achieve our vision of a world with Zero Crashes, Zero Emissions and Zero Congestion, we need people to...
1",⬇ ⬇ ⬇ ⬇,,1,,['https://pbs.twimg.com/card_img/1485318238401617922/dMmiOew-?format=jpg&name=240x240'],https://twitter.com/Datayoshi_jobs/status/1477384487289954304
"MANJU K MANOHAR PMP, DTM",@manjukmanohar,2022-01-01T20:56:53.000Z,"MANJU K MANOHAR PMP, DTM
@manjukmanohar
·
1 de gen.","#winwithmanju
#coaching #nlp #icfcoach #Breakthrough
1",,,1,,['https://pbs.twimg.com/media/FIC4UuxVEAASDD4?format=jpg&name=small'],https://twitter.com/manjukmanohar/status/1477383350696353796
Boris Doosey,@b_money33,2022-01-01T20:56:46.000Z,"Boris Doosey
@b_money33
·
1 de gen.","https://youtu.be/YHAeGBM9z3I Check out this presentation by my friend 
@JordanJasuta
 on using #nlp to classify medical conditions. Really interesting breakdown of #machinelearning workflow on real-world #data. #DataScience
youtube.com
Jordan Jasuta Fischer - Ensemble NLP to classify medical conditions
Ensemble NLP to classify medical conditions by Jordan Jasuta FischerVisit https://rstats.ai/gov/ to learn more.Abstract: Medical terms are linguistically ver...
2
2",,,2,2,['https://pbs.twimg.com/card_img/1485202756780826628/eW74KVeY?format=jpg&name=240x240'],https://twitter.com/b_money33/status/1477383318874300419
Molly King,@Social_Molly,2022-01-01T20:43:33.000Z,"Molly King
@Social_Molly
·
1 de gen.","BEST BLOGS TO FOLLOW Every data scientist and aspirant must need to know HT 
@MikeQuindazzi
 @fisher85m
 #NLP #NLG #ComputerVision #FutureofWork
subhash-achutha.medium.com
BEST BLOGS TO FOLLOW Every data scientist and aspirant must need to know
check my repository for more details
2",,,2,,[],https://twitter.com/Social_Molly/status/1477379991952371718
"Iain Brown, PhD",@IainLJBrown,2022-01-01T19:49:56.000Z,"Iain Brown, PhD
@IainLJBrown
·
1 de gen.","Police Use of Artificial Intelligence: 2021 in Review - EFF

Read more here: https://ift.tt/3qIERfY

#ArtificialIntelligence #AI #DataScience #100DaysOfCode #Python #MachineLearning #BigData #DeepLearning #NLP #Robots #IoT
eff.org
Police Use of Artificial Intelligence: 2021 in Review
Decades ago, when imagining the practical uses of artificial intelligence, science fiction writers imagined autonomous digital minds that could serve humanity. Sure, sometimes a HAL 9000 or WOPR
46
23",,,46,23,['https://pbs.twimg.com/card_img/1482661211002978304/SiqZ5Orr?format=jpg&name=small'],https://twitter.com/IainLJBrown/status/1477366499702714375
Emma Hudson,@hudson_chatbots,2022-01-01T19:38:17.000Z,"Emma Hudson
@hudson_chatbots
·
1 de gen.","How To Build Scikit-learn Pipelines Like A Pro 
@AntGrasso
 via 
@MikeQuindazzi
 #NLP #NLG #ComputerVision #FutureofWork https://towardsdatascience.com/how-to-build-scikit-learn-pipelines-like-a-pro-107c1ffec225?source=rss------artificial_intelligence-5…
7",,,7,,['https://pbs.twimg.com/media/FICmRYiWQAs9VBm?format=jpg&name=small'],https://twitter.com/hudson_chatbots/status/1477363567141785611
Open Data Science,@odsc,2022-01-01T19:37:59.000Z,"Open Data Science
@odsc
·
1 de gen.","WebGPT: Improving the factual accuracy of language models through web browsing. #DataScience #NLP
openai.com
WebGPT: Improving the factual accuracy of language models through web browsing
We've fine-tuned GPT-3 to more accurately answer open-ended questions using a text-based web browser. Our prototype copies how humans research answers to questions online – it submits search queries,...
12
17",,,12,17,['https://pbs.twimg.com/card_img/1482638916310413314/L6CgE3sv?format=png&name=small'],https://twitter.com/odsc/status/1477363493074526209
"James Gingerich, @Expeflow #WorkEasier #RPA","James Gingerich, @Expeflow #WorkEasier #RPA",2022-01-01T19:20:00.000Z,"James Gingerich, @Expeflow #WorkEasier #RPA
@jamesvgingerich
·
1 de gen.","What is #NLP? Natural language processing explained. (CIO) #AI  https://buff.ly/33evaL3
1
1",,,1,1,['https://pbs.twimg.com/media/E0mJ5LBXoAMYqis?format=jpg&name=small'],https://twitter.com/jamesvgingerich/status/1477358966145531909
The Wisdom Post,@thewisdomposts,2022-01-01T19:19:21.000Z,"The Wisdom Post
@thewisdomposts
·
1 de gen.","“Worry not that no one knows you; seek to be worth knowing.” ~Confucius | [1277x720] | [OC]
RT IF YOU AGREE
#motivation #quotes #motivationalquotes #getmotivated #nlp #selfimprovement
3
1",⚡ 🔥,,3,1,['https://pbs.twimg.com/media/FICiARyXwAMTE-2?format=jpg&name=small'],https://twitter.com/thewisdomposts/status/1477358805272961044
VERN -- The Virtual Emotion Resource Network,@VERN_VirtualEmo,2022-01-01T18:40:02.000Z,"VERN -- The Virtual Emotion Resource Network
@VERN_VirtualEmo
·
1 de gen.","My resolution was to read more so I put the subtitles on my tv. #vern #nlp #ai http://ow.ly/EbQA30s42Eg
1",,,,1,['https://pbs.twimg.com/media/FICZAUZXwAUeGG_?format=png&name=small'],https://twitter.com/VERN_VirtualEmo/status/1477348911270576133
Craig Tucker,@CraigMTucker,2022-01-01T18:40:02.000Z,"Craig Tucker
@CraigMTucker
·
1 de gen.","My resolution was to read more so I put the subtitles on my tv. #vern #nlp #ai http://ow.ly/405Q30s42wk
1",,,,1,['https://pbs.twimg.com/media/FICZAU6XEAM2esg?format=png&name=small'],https://twitter.com/CraigMTucker/status/1477348911064961029
Grant Hadlich,@GrantHadlich,2022-01-01T16:58:17.000Z,"Grant Hadlich
@GrantHadlich
·
1 de gen.","How negative was my Twitter feed in the last few hours? In the replies are a few models that analyze the sentiment of my home timeline feed on Twitter for the last 24 hours using the Twitter API.
GitHub: https://github.com/ghadlich/DailySentiment…
#NLP #Python
1
1
1",,1,1,1,['https://pbs.twimg.com/media/FICBtrZVcAMvMPi?format=jpg&name=small'],https://twitter.com/GrantHadlich/status/1477323301743517696
MOHAMMED SAEED,@TruSaeed,2022-01-01T16:42:49.000Z,"MOHAMMED SAEED
@TruSaeed
·
1 de gen.","Using NLP to assist Therapists to perform better during their Sessions.

#DeepLearning #MachineLearning #NLP #AI
World Economic Forum
@wef
 · 26 de des. de 2021
This AI is analyzing therapy sessions. 

Read more: http://ow.ly/LRum50HhhkN",,,,,"['https://pbs.twimg.com/profile_images/565498192171507712/r2Hb2gvX_mini.png', 'https://pbs.twimg.com/ext_tw_video_thumb/1475208604760297476/pu/img/1wFML5ng7fwHY5mV.jpg']",https://twitter.com/TruSaeed/status/1477319410289422337
The Wisdom Post,@thewisdomposts,2022-01-01T16:19:45.000Z,"The Wisdom Post
@thewisdomposts
·
1 de gen.","""Being alone for a while is dangerous."" ~ Tom Hardy | [638x620]
RT IF YOU AGREE
#motivation #quotes #motivationalquotes #getmotivated #nlp #selfimprovement
2
1",⚡ 🔥,,2,1,['https://pbs.twimg.com/media/FIB45UXXwAkoRpJ?format=jpg&name=small'],https://twitter.com/thewisdomposts/status/1477313605859225603
The Wisdom Post,@thewisdomposts,2022-01-01T16:19:42.000Z,"The Wisdom Post
@thewisdomposts
·
1 de gen.","How silly were the idolaters of old, who knelt before the clumsy wooden figurines of their own making! We are wiser now. We kneel before mirrors. ~Anthony Esolen [1650 x 1275]
RT IF YOU AGREE
#motivation #quotes #motivationalquotes #getmotivated #nlp #selfimprovement
2",⚡ 🔥,,2,,['https://pbs.twimg.com/media/FIB44o-WUAMv_wS?format=jpg&name=small'],https://twitter.com/thewisdomposts/status/1477313593989345282
Big Data Conference,@bigdataconf,2022-01-01T16:15:06.000Z,"Big Data Conference
@bigdataconf
·
1 de gen.","#Newyear Special Offer!!
Click Here https://buff.ly/2Rr5KBI to View Our upcoming events in 2022!! Book your Spot now at Best Price use discount Code TWITTER
#DataScience #MachineLearning #Deeplearning #ArtificialIntelligence #BigData #NLP #NoSQL #TensorFlow #Serverless #GlobalAI
7
1",,,7,1,['https://pbs.twimg.com/media/FIB31R-XwAIYBqG?format=jpg&name=small'],https://twitter.com/bigdataconf/status/1477312437393178624
C-Suite,@CSuitePro,2022-01-01T15:30:17.000Z,"C-Suite
@CSuitePro
·
1 de gen.","Knowledge Management of the Future: Linking Humans and AI https://buff.ly/3ERq5JM #AI #KnowledgeManagement #Mindbreeze #MachineLearning #ArtificialIntelligence #EmergingTech #NLP #Technology #Coruzant #TheDigitalExecutive
coruzant.com
Knowledge Management of the Future: Linking Humans and AI
Knowledge Management of the Future: Linking Humans and AI. Knowledge remains a critical component in standing out from the competition.
2",,,2,,['https://pbs.twimg.com/card_img/1483996464795815940/FxqpuMmI?format=jpg&name=small'],https://twitter.com/CSuitePro/status/1477301155394899976
C-Suite,@CSuitePro,2022-01-01T14:56:01.000Z,"C-Suite
@CSuitePro
·
1 de gen.","How Conversational AI empowers Your employees and Customers https://buff.ly/3dNLJCP #Ai #ConversationalAI #MachineLearning #NLP #RPA #ArtificialIntelligence #EmergingTech #Technology #SiliconValley #Aisera #Coruzant #TheDigitalExecutive
coruzant.com
How Conversational AI empowers Your employees and Customers
How Conversational AI empowers Your employees and Customers. For many customers “self-service” really means “self-annoyance.”",,,,,['https://pbs.twimg.com/card_img/1485807106485895168/54mV8A34?format=jpg&name=small'],https://twitter.com/CSuitePro/status/1477292532388216835
"Iain Brown, PhD",@IainLJBrown,2022-01-01T14:49:54.000Z,"Iain Brown, PhD
@IainLJBrown
·
1 de gen.","Could Artificial Intelligence Be the Secret to Acne-Free Skin? - Allure

Read more here: https://ift.tt/32OxRGf

#ArtificialIntelligence #AI #DataScience #100DaysOfCode #Python #MachineLearning #BigData #DeepLearning #NLP #Robots #IoT
allure.com
Could Artificial Intelligence Be the Secret to Acne-Free Skin?
Tech-driven skin care is here to cure our breakouts in just a few simple steps — but there's a catch.
52
14",,,52,14,['https://pbs.twimg.com/card_img/1484880219467042817/YOXkhVt5?format=jpg&name=small'],https://twitter.com/IainLJBrown/status/1477290995008086017
"Iain Brown, PhD",@IainLJBrown,2022-01-01T14:49:53.000Z,"Iain Brown, PhD
@IainLJBrown
·
1 de gen.","Will Artificial Intelligence Take Over Your Job in 2022? - Digital Information World

Read more here: https://ift.tt/3eEiZgb

#ArtificialIntelligence #AI #DataScience #100DaysOfCode #Python #MachineLearning #BigData #DeepLearning #NLP #Robots #IoT
digitalinformationworld.com
Will Artificial Intelligence Take Over Your Job in 2022?
The group that is perhaps most fearful of losing their jobs to an AI based program is that of college graduates.
55
16",,,55,16,[],https://twitter.com/IainLJBrown/status/1477290992172769287
The Wisdom Post,@thewisdomposts,2022-01-01T14:19:30.000Z,"The Wisdom Post
@thewisdomposts
·
1 de gen.","''We seldom realize, for example that our most private thoughs and emotions are not actually our own.'' - Alan Watts [1920x100]
RT IF YOU AGREE
#motivation #quotes #motivationalquotes #getmotivated #nlp #selfimprovement
1",⚡ 🔥,,1,,['https://pbs.twimg.com/media/FIBdX0PWQAQKaFO?format=jpg&name=small'],https://twitter.com/thewisdomposts/status/1477283343599386625
Harumi Watanabe,@harumi_kobe,2022-01-01T14:17:43.000Z,"Harumi Watanabe
@harumi_kobe
·
1 de gen.","Happy New Year 2022! 　明けましておめでとうございます。平和で笑顔溢れる1年になりますように

 #NLP #ネトビ塾 #コーチング #カウンセリング  #心理 #キャリコン #キャリアコンサルタント #研修 #講師 
#セラピスト #コンサルタント
1
1
71",💕,1,1,71,['https://pbs.twimg.com/media/FIBZjcAacAIq_3p?format=png&name=small'],https://twitter.com/harumi_kobe/status/1477282893890453513
Big Data Conference,@bigdataconf,2022-01-01T14:15:05.000Z,"Big Data Conference
@bigdataconf
·
1 de gen.","Maybe 2022 should be the year we turn over decision-making to the #AI https://buff.ly/3sLAP9l #DataScience #ArtificialIntelligence #MachineLearning #Deeplearning #GlobalAI #NLP #NoSQL #IoT #R #Python #Bigdata #Cassandra #kafka #Hadoop #spark #GlobalAI #Database #DataMining #AIOps
7
3",,,7,3,[],https://twitter.com/bigdataconf/status/1477282232276590594
Andrew MΔtthews PGA MNLP,@Andrew_Matthews,2022-01-01T14:10:31.000Z,"Andrew MΔtthews PGA MNLP
@Andrew_Matthews
·
1 de gen.","This will inspire you #health #positive #positivity #nlp
anchor.fm
1st January 2022 - losing weight and getting healthy with NLP and other Mind techniques by How to...
Hi everyone, Andrew Mathews here again with another update, out and about, walking on my ongoing journey of losing weight and getting healthy with NLP and offer mind techniques. Watch on my YouTube...
1",,1,,,['https://pbs.twimg.com/card_img/1485345038750126081/SHq1C8WR?format=jpg&name=small'],https://twitter.com/Andrew_Matthews/status/1477281084446744576
Coruzant Technologies,@Coruzant,2022-01-01T13:17:01.000Z,"Coruzant Technologies
@Coruzant
·
1 de gen.","Retailers and Restaurants Lock into Robotics: Here’s Why https://buff.ly/3cRRorj #AI #RPA #AutonomousVehicles #Delivery #EmergingTech #MachineLearning #NLP #SmartVehicles #Ottonomy #Coruzant
coruzant.com
Retailers and Restaurants Lock into Robotics: Here’s Why
Retailers and Restaurants Lock into Robotics: Here’s Why. Adoption of robots in the retail and restaurant industry is finding new hot areas of improvement.
2",,,2,,['https://pbs.twimg.com/card_img/1485602501290246145/qLCpVFnn?format=jpg&name=small'],https://twitter.com/Coruzant/status/1477267619363405824
Sympalog Voice Solutions GmbH,@sympalog,2022-01-01T13:02:08.000Z,"Sympalog Voice Solutions GmbH
@sympalog
·
1 de gen.","Erst Natural Language Processing sorgt für einen natürlichen Dialog zwischen Mensch und Maschine. Wir erklären, was hinter #NLP steckt: https://sympalog.de/nlp-nlu-natuerlichsprachlichkeit-mit-natural-language-processing/… #voicebot #sprachdialogsystem #ai #ki #nlp",,,,,['https://pbs.twimg.com/media/FIBLqavWYAMTQXq?format=jpg&name=small'],https://twitter.com/sympalog/status/1477263875359789058
Brian E. Thomas,@DivergentCIO,2022-01-01T13:00:35.000Z,"Brian E. Thomas
@DivergentCIO
·
1 de gen.","Using Artificial Intelligence to Automate the Bid Management Process https://buff.ly/2YYcReC #ArtificialIntelligence #NLP #NLG #AI #MachineLearning #BidProcess #BidAutomation #Automation #RPA #EmergingTech #Coruzant #CTO 
@Mindbreeze
coruzant.com
Using Artificial Intelligence to Automate the Bid Management Process
Using Artificial Intelligence to automate the bid management process, which is time-consuming, intense, and tedious.
9
1",,,9,1,['https://pbs.twimg.com/card_img/1484156953660358659/7vjt0e_i?format=jpg&name=small'],https://twitter.com/DivergentCIO/status/1477263483955814412
Brian E. Thomas,@DivergentCIO,2022-01-01T12:54:01.000Z,"Brian E. Thomas
@DivergentCIO
·
1 de gen.","Retailers and Restaurants Lock into Robotics: Here’s Why https://buff.ly/3cRRorj #AI #RPA #AutonomousVehicles #Delivery #EmergingTech #MachineLearning #NLP #SmartVehicles #Ottonomy #Coruzant #CTO 
@Ottonomy_IO
coruzant.com
Retailers and Restaurants Lock into Robotics: Here’s Why
Retailers and Restaurants Lock into Robotics: Here’s Why. Adoption of robots in the retail and restaurant industry is finding new hot areas of improvement.
1
3",,,1,3,['https://pbs.twimg.com/card_img/1485602501290246145/qLCpVFnn?format=jpg&name=small'],https://twitter.com/DivergentCIO/status/1477261831261589510
Coruzant Technologies,@Coruzant,2022-01-01T12:47:00.000Z,"Coruzant Technologies
@Coruzant
·
1 de gen.","Knowledge Management of the Future: Linking Humans and AI https://buff.ly/3ERq5JM #AI #KnowledgeManagement #Mindbreeze #MachineLearning #ArtificialIntelligence #EmergingTech #NLP #Technology #Coruzant
coruzant.com
Knowledge Management of the Future: Linking Humans and AI
Knowledge Management of the Future: Linking Humans and AI. Knowledge remains a critical component in standing out from the competition.
2",,,2,,['https://pbs.twimg.com/card_img/1483996464795815940/FxqpuMmI?format=jpg&name=small'],https://twitter.com/Coruzant/status/1477260067531628550
Coruzant Technologies,@Coruzant,2022-01-01T12:45:01.000Z,"Coruzant Technologies
@Coruzant
·
1 de gen.","How Conversational AI empowers Your employees and Customers https://buff.ly/3dNLJCP #Ai #ConversationalAI #MachineLearning #NLP #RPA #ArtificialIntelligence #EmergingTech #Technology #SiliconValley #Aisera #Coruzant
coruzant.com
How Conversational AI empowers Your employees and Customers
How Conversational AI empowers Your employees and Customers. For many customers “self-service” really means “self-annoyance.”
1",,,1,,['https://pbs.twimg.com/card_img/1485807106485895168/54mV8A34?format=jpg&name=small'],https://twitter.com/Coruzant/status/1477259566886891523
Coruzant Technologies,@Coruzant,2022-01-01T12:42:00.000Z,"Coruzant Technologies
@Coruzant
·
1 de gen.","What is the Difference Between AI and Machine Learning in Healthcare? https://buff.ly/3sgdGeS #Healthcare #HealthTech #EmergingTech #AI #MachineLearning #NLP #RPA #illumisoft #Analytics #HIMSS #Coruzant
coruzant.com
What is the Difference Between AI and Machine Learning in Healthcare?
What is the Difference Between AI and Machine Learning in Healthcare? AI and machine learning have permeated many aspects of modern life.",,,,,['https://pbs.twimg.com/card_img/1486338375615500294/HuMGeBrn?format=jpg&name=small'],https://twitter.com/Coruzant/status/1477258808481443843
M.Bim illegal gesund #MassnahmenSpiralebeenden,@MPBim1,2022-01-01T10:44:21.000Z,"M.Bim illegal gesund #MassnahmenSpiralebeenden
@MPBim1
·
1 de gen.","Wie immer, achtet auf die Worte!
#NLP lässt grüssen!
Dolli
@Dolli56080862
 · 31 de des. de 2021
Sorry, aber dieses Wording ist nicht mehr zu ertragen!!!!!
Das sind nicht die Worte eines Demokraten 
1",😡 👹,,,1,"['https://pbs.twimg.com/profile_images/1481215727344443392/J17Jku41_mini.jpg', 'https://pbs.twimg.com/ext_tw_video_thumb/1476952142166601732/pu/img/2kpTC79AsSS59DAk.jpg']",https://twitter.com/MPBim1/status/1477229201686212609
RedFox Mobile Security,@RedFox_App,2022-01-01T10:30:00.000Z,"RedFox Mobile Security
@RedFox_App
·
1 de gen.","Security Tip: Change your home router’s default password to prevent hackers reach data stored on devices connected to it.
More security info: https://redfox.ntrigo.com
.

#cybersecurity #100DaysOfCode #womenintech #javascript #Python #nodejs #Pune #twitch #indiedev 
@BlazedRTs
 #NLP
redfox.ntrigo.com
RedFox - Mobile Security Solutions
RedFox safeguards your devices, your data, and your privacy with protection that’s relentless but lightweight and easy to use
48
10",,,48,10,['https://pbs.twimg.com/card_img/1486595050507104259/M9a6fMxV?format=jpg&name=small'],https://twitter.com/RedFox_App/status/1477225587701960706
CDT in Speech and Language Technologies,@sltcdt,2022-01-01T10:30:00.000Z,"CDT in Speech and Language Technologies
@sltcdt
·
1 de gen.","Happy New Year! 

Looking to the future for something different? 

A #PhD in computational processing of #speech or written #language  (#NLP / #NLProc) could be it! Check out how to join our 2022 cohort! Next deadline: 31 Jan http://slt-cdt.ac.uk/apply

#ai #research #cdt
7
9",,,7,9,['https://pbs.twimg.com/media/FHSK_l-WQAs4WVF?format=jpg&name=small'],https://twitter.com/sltcdt/status/1477225587345293317
Philip D Hughes,@PDH_SciTechNews,2022-01-01T10:04:39.000Z,"Philip D Hughes
@PDH_SciTechNews
·
1 de gen.","#Computing Quantum computers are on the path to solving bigger problems for BMW, LG and others - CNET https://ift.tt/3EE7Czy #Python #AI #100DaysOfCode #FemTech #AR #ML #Analytics #Rstats #Reactjs #IoT #IIoT #NLP #Linux #serverless #flutter #javascript #TensorFlow  #Cloud #Big…
cnet.com
Quantum computers are on the path toward solving bigger problems
Steady progress and a burst of new quantum computer types bring these revolutionary systems closer to reality.
46
20",,,46,20,['https://pbs.twimg.com/card_img/1486230586725330945/ZWQlz4_L?format=jpg&name=small'],https://twitter.com/PDH_SciTechNews/status/1477219208484249604
ANLP International,@ANLP,2022-01-01T10:01:12.000Z,"ANLP International
@ANLP
·
1 de gen.","Perhaps 2022 will be the year when we all look within, so that we can bring forth the incredible internal resources we possess and share our gifts with the world even more!

#nlp #anlpinternational #nlpconference #nlpawards #nlpcommunity #hapynewyear #quote #vision #inspiration
3
2",,,3,2,['https://pbs.twimg.com/media/FIAiQPuXoAM32z0?format=jpg&name=small'],https://twitter.com/ANLP/status/1477218341664268295
Philip D Hughes,@PDH_SciTechNews,2022-01-01T09:39:05.000Z,"Philip D Hughes
@PDH_SciTechNews
·
1 de gen.","#Computing Cheetah RAID Prowler Addresses Rugged Edge Computing - http://StorageReview.com https://ift.tt/3EIOi44 #Python #AI #100DaysOfCode #FemTech #AR #ML #Analytics #Rstats #Reactjs #IoT #IIoT #NLP #Linux #serverless #flutter #javascript #TensorFlow  #Cloud #BigData
storagereview.com
Cheetah RAID Prowler Addresses Rugged Edge Computing
The Cheetah RAID Prowler is the smallest high-performance data logger built for vehicle and Military applications.
20
6",,,20,6,[],https://twitter.com/PDH_SciTechNews/status/1477212773574717443
Szentiment Bot,@szentiment,2022-01-01T08:31:10.000Z,"Szentiment Bot
@szentiment
·
1 de gen."," Search Term: #2022Goals 

 Timestamp: 2022-01-01 08:31:08 

Overall Sentiment: Very Good  

Positive: 22.85% 
Neutral: 74.05% 
Negative: 3.10% 
Compound: 0.3561

#sentimentanalysis #NLP",🔎 ⏱ 😀,,,,[],https://twitter.com/szentiment/status/1477195684101111809
Szentiment Bot,@szentiment,2022-01-01T08:30:57.000Z,"Szentiment Bot
@szentiment
·
1 de gen."," Search Term: #NewYearsHonours 

 Timestamp: 2022-01-01 08:30:55 

Overall Sentiment: Very Good  

Positive: 19.23% 
Neutral: 74.45% 
Negative: 6.32% 
Compound: 0.3534

#sentimentanalysis #NLP",🔎 ⏱ 😀,,,,[],https://twitter.com/szentiment/status/1477195627738112002
Szentiment Bot,@szentiment,2022-01-01T08:30:43.000Z,"Szentiment Bot
@szentiment
·
1 de gen."," Search Term: #NHSNYE 

 Timestamp: 2022-01-01 08:30:40 

Overall Sentiment: Very Good  

Positive: 13.42% 
Neutral: 84.28% 
Negative: 2.31% 
Compound: 0.3171

#sentimentanalysis #NLP",🔎 ⏱ 😀,,,,[],https://twitter.com/szentiment/status/1477195568745230339
Szentiment Bot,@szentiment,2022-01-01T08:30:29.000Z,"Szentiment Bot
@szentiment
·
1 de gen."," Search Term: #WarCriminal 

 Timestamp: 2022-01-01 08:30:27 

Overall Sentiment: Neutral  

Positive: 7.36% 
Neutral: 79.16% 
Negative: 13.48% 
Compound: -0.0636

#sentimentanalysis #NLP",🔎 ⏱ 😐,,,,[],https://twitter.com/szentiment/status/1477195509836259332
Szentiment Bot,@szentiment,2022-01-01T08:30:15.000Z,"Szentiment Bot
@szentiment
·
1 de gen."," Search Term: #AEWRampage 

 Timestamp: 2022-01-01 08:30:13 

Overall Sentiment: Good  

Positive: 15.02% 
Neutral: 78.54% 
Negative: 6.44% 
Compound: 0.1997

#sentimentanalysis #NLP",🔎 ⏱ 🙂,,,,[],https://twitter.com/szentiment/status/1477195454408445952
Szentiment Bot,@szentiment,2022-01-01T08:30:01.000Z,"Szentiment Bot
@szentiment
·
1 de gen."," Search Term: #londonfireworks 

 Timestamp: 2022-01-01 08:29:59 

Overall Sentiment: Good  

Positive: 10.98% 
Neutral: 86.26% 
Negative: 2.76% 
Compound: 0.1573

#sentimentanalysis #NLP",🔎 ⏱ 🙂,,,,[],https://twitter.com/szentiment/status/1477195394929119233
Philip D Hughes,@PDH_SciTechNews,2022-01-01T08:29:50.000Z,"Philip D Hughes
@PDH_SciTechNews
·
1 de gen.","#Computing Cheetah RAID Prowler Addresses Rugged Edge Computing - http://StorageReview.com https://ift.tt/3EIOi44 #Python #AI #100DaysOfCode #FemTech #AR #ML #Analytics #Rstats #Reactjs #IoT #IIoT #NLP #Linux #serverless #flutter #javascript #TensorFlow  #Cloud #BigData
storagereview.com
Cheetah RAID Prowler Addresses Rugged Edge Computing
The Cheetah RAID Prowler is the smallest high-performance data logger built for vehicle and Military applications.
26
7",,,26,7,[],https://twitter.com/PDH_SciTechNews/status/1477195345868505092
Szentiment Bot,@szentiment,2022-01-01T08:29:48.000Z,"Szentiment Bot
@szentiment
·
1 de gen."," Search Term: #ReturnToHogwarts 

 Timestamp: 2022-01-01 08:29:45 

Overall Sentiment: Very Good  

Positive: 17.46% 
Neutral: 80.00% 
Negative: 2.54% 
Compound: 0.3021

#sentimentanalysis #NLP",🔎 ⏱ 😀,,,,[],https://twitter.com/szentiment/status/1477195338964480008
Szentiment Bot,@szentiment,2022-01-01T08:29:34.000Z,"Szentiment Bot
@szentiment
·
1 de gen."," Search Term: #CNNNYE 

 Timestamp: 2022-01-01 08:29:32 

Overall Sentiment: Good  

Positive: 14.86% 
Neutral: 79.85% 
Negative: 5.29% 
Compound: 0.2513

#sentimentanalysis #NLP",🔎 ⏱ 🙂,,,,[],https://twitter.com/szentiment/status/1477195280814596097
Szentiment Bot,@szentiment,2022-01-01T08:29:21.000Z,"Szentiment Bot
@szentiment
·
1 de gen."," Search Term: #ARSMCI 

 Timestamp: 2022-01-01 08:29:18 

Overall Sentiment: Very Good  

Positive: 24.29% 
Neutral: 75.39% 
Negative: 0.32% 
Compound: 0.5355

#sentimentanalysis #NLP",🔎 ⏱ 😀,,,,[],https://twitter.com/szentiment/status/1477195225055514624
Szentiment Bot,@szentiment,2022-01-01T08:29:07.000Z,"Szentiment Bot
@szentiment
·
1 de gen."," Search Term: #2022NewYear 

 Timestamp: 2022-01-01 08:29:05 

Overall Sentiment: Very Good  

Positive: 36.33% 
Neutral: 62.26% 
Negative: 1.41% 
Compound: 0.5429

#sentimentanalysis #NLP",🔎 ⏱ 😀,,,,[],https://twitter.com/szentiment/status/1477195166884802561
The Wisdom Post,@thewisdomposts,2022-01-01T07:19:49.000Z,"The Wisdom Post
@thewisdomposts
·
1 de gen.","Seeing your smile through the years make our love turn into eternity - Quy Mai [ 1080 x 1080 ]
RT IF YOU AGREE
#motivation #quotes #motivationalquotes #getmotivated #nlp #selfimprovement
2
2",⚡ 🔥,,2,2,['https://pbs.twimg.com/media/FH_9UP8XIAALL9y?format=jpg&name=small'],https://twitter.com/thewisdomposts/status/1477177728537350145
A.I. Smartable,@AIFeeds,2022-01-01T07:08:19.000Z,"A.I. Smartable
@AIFeeds
·
1 de gen.","#News: Investing In Sustainability For Emerging Markets #NLP #artificialintelligence #AI https://forbes.com/sites/shivaramrajgopal/2022/01/01/investing-in-sustainability-for-emerging-markets/…
1",,,1,,['https://pbs.twimg.com/media/FH_6rinVQAADT3f?format=jpg&name=small'],https://twitter.com/AIFeeds/status/1477174832240361475
Radiology: Artificial Intelligence,@Radiology_AI,2022-01-01T07:05:04.000Z,"Radiology: Artificial Intelligence
@Radiology_AI
·
1 de gen.","Using #NLP of cardiovascular radiology reports to label diagnosis https://doi.org/10.1148/ryai.210085… 
@ProfDFrancis
 @nick_linton
 @AI4HealthCentre
 #BERT #HeartDisease #AI
1
2
6",,1,2,6,['https://pbs.twimg.com/media/FH_58KSVgAA5jH8?format=png&name=small'],https://twitter.com/Radiology_AI/status/1477174016020385793
SMBs Digital Fitness,@SmbsF,2022-01-01T07:00:21.000Z,"SMBs Digital Fitness
@SmbsF
·
1 de gen.","Disease Digital Twins, Synthetic Advertising, and NLP for Attack Prediction and Detection are a few emerging technologies still in the labs or very recently released.

 
@Gartner_inc
 http://gtnr.it/3dSylfV rt 
@antgrasso
 #AI #NLP #DigitalTwins
2
2",,,2,2,['https://pbs.twimg.com/media/FH_4zDgXwAEfMAe?format=jpg&name=small'],https://twitter.com/SmbsF/status/1477172827774418945
Life&Mind（ライフ&マインド）編集部,@life_mind777,2022-01-01T07:00:13.000Z,"Life&Mind（ライフ&マインド）編集部
@life_mind777
·
1 de gen.","Life&Mind過去記事。
売れる #営業 ６つの学び
①立ち居振る舞い②高い目標とGAPを埋める思考③モチベーションの源泉④高い熱量と1点集中の行動⑤ネガティブな足枷⑤営業の大前提ラポール

https://life-and-mind.com/strengthen-sales-24030…

#NLP #心理学 #NLP心理学
4",,,,4,['https://pbs.twimg.com/media/FH_40v4aIAMlBPP?format=jpg&name=small'],https://twitter.com/life_mind777/status/1477172795033677824
Ufuk Önen,@onenufuk,2022-01-01T06:58:05.000Z,"Ufuk Önen
@onenufuk
·
1 de gen.","Birlikte Denge https://ufukonen.com.tr/birlikte-denge/ #ufukönen #NGH #hipnoterapist #Sertifika #online #NLP #trainer
ufukonen.com.tr
Birlikte Denge - Ufuk Önen
Herşey birbirinin içinde. Herşey birlikte dengede. Denge birlikte.",,,,,[],https://twitter.com/onenufuk/status/1477172259311828997
"luca splendore di gennaro, PhD",@lucasplendore75,2022-01-01T06:50:00.000Z,"luca splendore di gennaro, PhD
@lucasplendore75
·
1 de gen.","Fisher devised ingenious #methods for analyzing these data, but he soon realized that the #data that he had, although massive, did not provide much #information on the important questions he needed to answer
#GeorgeBox #innovation #statistics #Reactjs #IoT #IIoT #ML #NLP #flutter
1
8
7",,1,8,7,['https://pbs.twimg.com/media/E6X0O1TXEAEalef?format=jpg&name=small'],https://twitter.com/lucasplendore75/status/1477170222520012802
Dr Edmond Fernandes,@Edmondfernandes,2022-01-01T04:44:50.000Z,"Dr Edmond Fernandes
@Edmondfernandes
·
1 de gen.","A friend of mine, Dr. Lovina practices in Spiritual healing and NLP & Regression Therapy at Surat. You can contact her on the following details if interested. 
#healingjourney #HealingTrauma #Vaishnodevi #NLP #reiki #healthcare #Gujarat #GujaratCoronaUpdate #hridaan #healthy
1
1
4",,1,1,4,['https://pbs.twimg.com/media/FH_ZIh4UUAIX6aZ?format=jpg&name=small'],https://twitter.com/Edmondfernandes/status/1477138724102152192
Rajiv Maheshwari,@rajivmah,2022-01-01T04:43:53.000Z,"Rajiv Maheshwari
@rajivmah
·
1 de gen.","Wish you a very #HappyNewYear2022! Here is the first part of my #YearinReview, with my thoughts on #Digital, #Technology and Intelligence Stack (#AI, #ML, #NLP, #DataScience, #Analytics)

Lets put two and two together in 2022! 
#rajivmah #NewYear2022
rajivmaheshwari.com
Year in Review 2021: Digital and Technology welcomes 2022
Year in Review 2021: Digital, Technology & Intelligence Stack - AI, Machine Learning, Data & Analytics - to welcome 2022. By Rajiv Maheshwari
1
1",,,1,1,['https://pbs.twimg.com/card_img/1485419582504513539/zVcpt4Qk?format=jpg&name=240x240'],https://twitter.com/rajivmah/status/1477138483974066176
今庄いまじょう和恵@神戸元町コネクトロン,今庄いまじょう和恵@神戸元町コネクトロン,2022-01-01T03:54:27.000Z,"今庄いまじょう和恵@神戸元町コネクトロン
@connectronkobe
·
1 de gen.","伝えなくていい方に５０００円

▶︎同性愛　病床の母に伝えるか（2021/12/31分） https://connectron.love/2022/01/vision/17707/… 

#NLP #ビジョン心理学 #四柱推命 #易 #周易 #タロット #心療内科 #カウンセリング #断薬 #発達障害 #毒親 #DV #依存症 #引きこもり #拒食症 #介護 #失恋 #看取り #人生案内
connectron.love
同性愛 病床の母に伝えるか（2021/12/31分） | 神戸元町コネクトロン
1
2",,,1,2,['https://pbs.twimg.com/card_img/1484910256710815746/5N7ynVUm?format=jpg&name=360x360'],https://twitter.com/connectronkobe/status/1477126045820407812
Author H. A. Hill,@authorhahi11,2022-01-01T03:50:15.000Z,"Author H. A. Hill
@authorhahi11
·
1 de gen.","It’s 2022 and the only thing holding you back from your dreams this year is YOU!

New blog!

https://theleveluplifeblog.blogspot.com/2021/12/in-2022-only-thing-holding-you-back-is.html…

#newyear #goals #2022Goals #newblog #blogger #blogpost #mindset #personaldevelopment #mindfulness #gratitude #nlp #limitingbeliefs
1
3",,,1,3,[],https://twitter.com/authorhahi11/status/1477124989728047108
Mehernosh Randeria,@MehernoshW3,2022-01-01T03:39:01.000Z,"Mehernosh Randeria
@MehernoshW3
·
1 de gen.","#w3coach #w3successacademy #inspiration #dailyquotes #nlp #quotes
1",,,1,,['https://pbs.twimg.com/media/FH_KxqwXMAQEB0v?format=jpg&name=small'],https://twitter.com/MehernoshW3/status/1477122160699351044
Serena,@DD_Serena_,2022-01-01T03:34:48.000Z,"Serena
@DD_Serena_
·
1 de gen.","Introduction to Natural Language Processing in Python. Learn fundamental natural language processing techniques using Python and how to apply them to extract insights from real-world text data https://datacamp.pxf.io/qnWedn #intro #NLP #python
datacamp.com
Introduction to Natural Language Processing in Python Course
Learn fundamental natural language processing (NLP) techniques using Python and how to apply them to extract insights from real-world text data in Python.
5
1",📚,,5,1,['https://pbs.twimg.com/card_img/1484477813902266371/jdJCU2k_?format=png&name=240x240'],https://twitter.com/DD_Serena_/status/1477121101239095301
fafa.,@DD_FaFa_,2022-01-01T03:23:47.000Z,"fafa.
@DD_FaFa_
·
1 de gen.","Feature Engineering for NLP in Python. Learn techniques to extract useful information from text and process them into a format suitable for machine learning https://datacamp.pxf.io/jWRMYa #python #NLP #machinelearning
datacamp.com
Feature Engineering for NLP in Python Course
Learn the techniques in Python to extract useful information from text and process them into a format suitable for applying to machine learning models.
10
4",,,10,4,['https://pbs.twimg.com/card_img/1484477813902266371/jdJCU2k_?format=png&name=240x240'],https://twitter.com/DD_FaFa_/status/1477118326874656770
Jaspreet singh,@Jazz9559,2022-01-01T03:19:05.000Z,"Jaspreet singh
@Jazz9559
·
1 de gen.","Hope the new year brings new data to explore while we survive the time series of 2022 and analyse each moment with regressions, analytics, NLPs and CVs to solve everyday business problems 

Wishing everyone a Happy New Year

#HAPPYNEWYEAR #DataScience #nlp #2022NewYear
2
1",🤣,,2,1,['https://pbs.twimg.com/media/FH_GNzYUcAgZuBC?format=jpg&name=small'],https://twitter.com/Jazz9559/status/1477117146899435520
そごう つよし@心技体を整える,そごう つよし@心技体を整える,2022-01-01T00:58:37.000Z,"そごう つよし@心技体を整える
@breaklimits2020
·
1 de gen.","#躰道五条訓
『態端正にして心形の一体を図り、態位正しきを得れば侮られることなし』
心の中と表に現れる形（態度、姿勢、動作、服装、髪形等々）を一致させることが大事。心と形がバラバラだと、自分の本当の力は発揮できない。
#限界突破 #躰道 #武道 #NLP #NLPコーチング
1",,,1,,[],https://twitter.com/breaklimits2020/status/1477081796617674752
めーめ(BABYMETAL多め),@meime3,2022-01-01T00:58:26.000Z,"めーめ(BABYMETAL多め)
@meime3
·
1 de gen.","(定期)【コーチング・NLP】●嘘を見抜く● #NLP #アイアクセシングキュー #VAKモデル 　ブログ：http://coach5434.seesaa.net/article/218824116.html…
1",,,1,,[],https://twitter.com/meime3/status/1477081749268185093
Philip D Hughes,@PDH_SciTechNews,2022-01-01T00:44:56.000Z,"Philip D Hughes
@PDH_SciTechNews
·
1 de gen.","#Computing IonQ Is a Risky Bet on World-Changing Quantum Computing Potential - Nasdaq https://ift.tt/3HrrmYZ #Python #AI #100DaysOfCode #FemTech #AR #ML #Analytics #Rstats #Reactjs #IoT #IIoT #NLP #Linux #serverless #flutter #javascript #TensorFlow  #Cloud #BigData
nasdaq.com
IonQ Is a Risky Bet on World-Changing Quantum Computing Potential
29
11",,,29,11,['https://pbs.twimg.com/card_img/1486191888541626370/Ed-3zXZZ?format=jpg&name=small'],https://twitter.com/PDH_SciTechNews/status/1477078351156322306
David Sobo,@DS_Analytics,2022-01-01T00:25:28.000Z,"David Sobo
@DS_Analytics
·
1 de gen.","Bye bye nasty insurers and price rises — hello fairer deals - The Times https://ift.tt/3eBrRU5

#DataScience #MachineLearning #DeepLearning #Insurance #NLP #Robots #AI #IoT #BigData
thetimes.co.uk
Bye bye nasty insurers and price rises — hello fairer deals
Over seven years the cost of Yvonne Allison’s buildings and contents insurance went from £225.42 to £389.38. Her son Daniel, an adviser to an oil and gas co
1",,,1,,[],https://twitter.com/DS_Analytics/status/1477073453186433030
Ai+ Training,@aiplustraining,2022-01-01T00:06:59.000Z,"Ai+ Training
@aiplustraining
·
1 de gen.","WebGPT: Improving the factual accuracy of language models through web browsing. #DataScience #NLP
openai.com
WebGPT: Improving the factual accuracy of language models through web browsing
We've fine-tuned GPT-3 to more accurately answer open-ended questions using a text-based web browser. Our prototype copies how humans research answers to questions online – it submits search queries,...
1",,,1,,['https://pbs.twimg.com/card_img/1483196779407499271/8VUharE0?format=png&name=small'],https://twitter.com/aiplustraining/status/1477068800520556547
ipfconline - we're taking a break - back on monday,@ipfconline1,2022-01-01T00:00:09.000Z,"ipfconline - we're taking a break - back on monday
@ipfconline1
·
1 de gen.","From conversation to code: Microsoft introduces its first product features powered by GPT-3

https://blogs.microsoft.com/ai/from-conversation-to-code-microsoft-introduces-its-first-product-features-powered-by-gpt-3/… 
@Microsoft
#AI #MachineLearning #DeepLearning #NLP #100DaysOfCode #CES2022

Cc 
@andi_staub
 @jblefevre60
 @MarshaCollier
 @AkwyZ
 @schmarzo
 @bobehayes
 @KirkDBorne
24
13",,,24,13,['https://pbs.twimg.com/media/FH-YrzBXIAMPuqZ?format=jpg&name=small'],https://twitter.com/ipfconline1/status/1477067083410296833
